Final Project 2: COVID19 Data Analysis
…
Question 3: Is there difference in number of confirmed cases
of COVID-19 among African countries?

After establishing that COVID-19 cases and deaths were lower in
Africa, let us review how cases and deaths differ among countries in
Africa.

# Step 4: Plot a line chart to compare total deaths by Continent
global_by_country_africa <- global_by_country %>% filter(Region == "Africa") %>% group_by(Country) %>% summarize(Total_Country_Cases = max(Total_Cases), Total_Country_Deaths = max(Total_Deaths)) %>% arrange(desc(Total_Country_Cases))

global_by_country_africa

## # A tibble: 56 x 3
##    Country      Total_Country_Cases Total_Country_Deaths
##    <chr>                      <dbl>                <dbl>
##  1 South Africa             4064889               102595
##  2 Morocco                  1272487                16296
##  3 Tunisia                  1150962                29331
##  4 Egypt                     515698                24809
##  5 Libya                     507174                 6437
##  6 Ethiopia                  500050                 7572
##  7 France                    494595                  921
##  8 Zambia                    343135                 4057
##  9 Kenya                     342919                 5688
## 10 Botswana                  329727                 2876
## # ... with 46 more rows
…
